{
  "createdWith": "Open Stage Control",
  "version": "1.25.3",
  "type": "session",
  "content": {
    "type": "root",
    "id": "root",
    "visible": true,
    "interaction": true,
    "comments": "",
    "width": "auto",
    "height": "auto",
    "colorText": "auto",
    "colorWidget": "rgba(52,148,176,1)",
    "alphaFillOn": "auto",
    "padding": "auto",
    "html": "",
    "css": "",
    "colorBg": "auto",
    "layout": "default",
    "justify": "start",
    "gridTemplate": "",
    "contain": true,
    "scroll": true,
    "innerPadding": true,
    "variables": "@{parent.variables}",
    "traversing": false,
    "value": 5,
    "default": "",
    "linkId": "",
    "address": "auto",
    "preArgs": [
      1,
      60
    ],
    "typeTags": "",
    "decimals": 2,
    "target": "",
    "ignoreDefaults": false,
    "bypass": false,
    "widgets": [
      {
        "type": "fader",
        "top": 100,
        "left": 10,
        "id": "speaker-fader_1",
        "visible": true,
        "comments": "",
        "width": 40,
        "height": 240,
        "expand": "false",
        "colorText": "auto",
        "colorWidget": "#ffffff",
        "colorStroke": "auto",
        "colorFill": "auto",
        "alphaStroke": "auto",
        "alphaFillOff": "auto",
        "alphaFillOn": 0.5,
        "lineWidth": "auto",
        "padding": "auto",
        "html": "",
        "css": "",
        "value": "",
        "default": 114,
        "linkId": "",
        "address": "/control",
        "preArgs": [
          2,
          1
        ],
        "decimals": 2,
        "target": "midi:OSC-hw",
        "onValue": "",
        "lock": false,
        "onCreate": "",
        "interaction": true,
        "typeTags": "",
        "ignoreDefaults": false,
        "bypass": false,
        "design": "compact",
        "pips": false,
        "dashed": false,
        "spring": false,
        "doubleTap": false,
        "range": {
          "min": 0,
          "max": 127
        },
        "logScale": false,
        "sensitivity": 0.5,
        "steps": "",
        "origin": "auto",
        "knobSize": 5,
        "horizontal": false,
        "gradient": [],
        "snap": false,
        "onTouch": "",
        "borderRadius": "auto"
      },
      {
        "type": "text",
        "top": 340,
        "left": 10,
        "id": "speaker-text",
        "visible": true,
        "comments": "",
        "width": 40,
        "height": 20,
        "expand": "false",
        "colorText": "auto",
        "colorWidget": "none",
        "colorStroke": "auto",
        "colorFill": "auto",
        "alphaStroke": "auto",
        "alphaFillOff": "auto",
        "alphaFillOn": "auto",
        "lineWidth": "auto",
        "padding": "auto",
        "html": "",
        "css": "font-family: monospace",
        "value": "SPKR",
        "default": "",
        "linkId": "",
        "address": "auto",
        "preArgs": "",
        "decimals": 2,
        "target": "",
        "onValue": "",
        "lock": false,
        "onCreate": "",
        "vertical": false,
        "wrap": false,
        "align": "center",
        "borderRadius": "auto"
      },
      {
        "type": "knob",
        "top": 10,
        "left": 60,
        "id": "master-knob_1",
        "visible": true,
        "comments": "",
        "width": 80,
        "height": 80,
        "expand": "false",
        "colorText": "auto",
        "colorWidget": "#ffffff",
        "colorStroke": "auto",
        "colorFill": "auto",
        "alphaStroke": "auto",
        "alphaFillOff": 0.1,
        "alphaFillOn": "auto",
        "lineWidth": "auto",
        "padding": "auto",
        "html": "",
        "css": "",
        "value": "",
        "default": 21,
        "linkId": "",
        "address": "/control",
        "preArgs": [
          1,
          11
        ],
        "decimals": 2,
        "target": "midi:OSC-hw",
        "onValue": "",
        "lock": false,
        "onCreate": "",
        "interaction": true,
        "typeTags": "",
        "ignoreDefaults": false,
        "bypass": false,
        "design": "default",
        "pips": false,
        "dashed": false,
        "spring": false,
        "doubleTap": true,
        "range": {
          "min": 0,
          "max": 127
        },
        "logScale": false,
        "sensitivity": 1,
        "steps": "",
        "origin": "auto",
        "onTouch": "",
        "angle": 270,
        "mode": "circular",
        "borderRadius": "auto"
      },
      {
        "type": "text",
        "top": 35,
        "left": 85,
        "id": "reverb-icon",
        "visible": true,
        "comments": "",
        "width": 30,
        "height": 30,
        "expand": "false",
        "colorText": "auto",
        "colorWidget": "none",
        "colorStroke": "auto",
        "colorFill": "auto",
        "alphaStroke": "auto",
        "alphaFillOff": "auto",
        "alphaFillOn": "auto",
        "lineWidth": "auto",
        "padding": "auto",
        "html": "",
        "css": "font-size: 15px;",
        "value": "🏦",
        "default": "",
        "linkId": "",
        "address": "auto",
        "preArgs": "",
        "decimals": 2,
        "target": "",
        "onValue": "",
        "lock": false,
        "onCreate": "",
        "vertical": false,
        "wrap": false,
        "align": "center",
        "borderRadius": "auto"
      },
      {
        "type": "text",
        "top": 66,
        "left": 60,
        "id": "master-knob_1-text1",
        "visible": true,
        "comments": "",
        "width": 80,
        "height": 20,
        "expand": "false",
        "colorText": "auto",
        "colorWidget": "none",
        "colorStroke": "auto",
        "colorFill": "auto",
        "alphaStroke": "auto",
        "alphaFillOff": "auto",
        "alphaFillOn": "auto",
        "lineWidth": "auto",
        "padding": "auto",
        "html": "",
        "css": "font-family: monospace",
        "value": "RVRB",
        "default": "",
        "linkId": "",
        "address": "auto",
        "preArgs": "",
        "decimals": 2,
        "target": "",
        "onValue": "",
        "lock": false,
        "onCreate": "",
        "vertical": false,
        "wrap": false,
        "align": "center",
        "borderRadius": "auto"
      },
      {
        "type": "fader",
        "top": 100,
        "left": 60,
        "id": "master-fader_1",
        "visible": true,
        "comments": "",
        "width": 80,
        "height": 240,
        "expand": "false",
        "colorText": "auto",
        "colorWidget": "#ffffff",
        "colorStroke": "auto",
        "colorFill": "auto",
        "alphaStroke": "auto",
        "alphaFillOff": "auto",
        "alphaFillOn": 0.5,
        "lineWidth": "auto",
        "padding": "auto",
        "html": "",
        "css": "",
        "value": "",
        "default": 127,
        "linkId": "",
        "address": "/control",
        "preArgs": [
          1,
          1
        ],
        "decimals": 2,
        "target": "midi:OSC-hw",
        "onValue": "",
        "lock": false,
        "onCreate": "",
        "interaction": true,
        "typeTags": "",
        "ignoreDefaults": false,
        "bypass": false,
        "design": "compact",
        "pips": false,
        "dashed": false,
        "spring": false,
        "doubleTap": false,
        "range": {
          "min": 0,
          "max": 127
        },
        "logScale": false,
        "sensitivity": 0.5,
        "steps": "",
        "origin": "auto",
        "knobSize": 5,
        "horizontal": false,
        "gradient": [],
        "snap": false,
        "onTouch": "",
        "borderRadius": "auto"
      },
      {
        "type": "text",
        "top": 340,
        "left": 60,
        "id": "master-text",
        "visible": true,
        "comments": "",
        "width": 80,
        "height": 20,
        "expand": "false",
        "colorText": "auto",
        "colorWidget": "none",
        "colorStroke": "auto",
        "colorFill": "auto",
        "alphaStroke": "auto",
        "alphaFillOff": "auto",
        "alphaFillOn": "auto",
        "lineWidth": "auto",
        "padding": "auto",
        "html": "",
        "css": "font-family: monospace",
        "value": "MASTER",
        "default": "",
        "linkId": "",
        "address": "auto",
        "preArgs": "",
        "decimals": 2,
        "target": "",
        "onValue": "",
        "lock": false,
        "onCreate": "",
        "vertical": false,
        "wrap": false,
        "align": "center",
        "borderRadius": "auto"
      },
      {
        "type": "fader",
        "top": 100,
        "left": 150,
        "id": "pc-fader_1",
        "visible": true,
        "comments": "",
        "width": 40,
        "height": 240,
        "expand": "false",
        "colorText": "auto",
        "colorWidget": "#000000",
        "colorStroke": "auto",
        "colorFill": "auto",
        "alphaStroke": "auto",
        "alphaFillOff": "auto",
        "alphaFillOn": 0.5,
        "lineWidth": "auto",
        "padding": "auto",
        "html": "",
        "css": "",
        "value": "",
        "default": 127,
        "linkId": "",
        "address": "/control",
        "preArgs": [
          4,
          1
        ],
        "decimals": 2,
        "target": "midi:OSC-hw",
        "onValue": "",
        "lock": false,
        "onCreate": "",
        "interaction": true,
        "design": "compact",
        "pips": false,
        "dashed": false,
        "spring": false,
        "doubleTap": false,
        "range": {
          "min": 0,
          "max": 127
        },
        "logScale": false,
        "sensitivity": 1,
        "steps": "",
        "origin": "auto",
        "typeTags": "",
        "ignoreDefaults": false,
        "bypass": false,
        "onTouch": "",
        "knobSize": 5,
        "horizontal": false,
        "gradient": [],
        "snap": false,
        "borderRadius": "auto"
      },
      {
        "type": "text",
        "top": 340,
        "left": 140,
        "id": "pc-text",
        "visible": true,
        "comments": "",
        "width": 60,
        "height": 20,
        "expand": "false",
        "colorText": "auto",
        "colorWidget": "none",
        "colorStroke": "auto",
        "colorFill": "auto",
        "alphaStroke": "auto",
        "alphaFillOff": "auto",
        "alphaFillOn": "auto",
        "lineWidth": "auto",
        "padding": "auto",
        "html": "",
        "css": "font-family: monospace",
        "value": "PC INT",
        "default": "",
        "linkId": "",
        "address": "auto",
        "preArgs": "",
        "decimals": 2,
        "target": "",
        "onValue": "",
        "lock": false,
        "onCreate": "",
        "vertical": false,
        "wrap": false,
        "align": "center",
        "borderRadius": "auto"
      },
      {
        "type": "knob",
        "top": 10,
        "left": 200,
        "id": "mic1-knob_1",
        "visible": true,
        "comments": "",
        "width": 80,
        "height": 80,
        "expand": "false",
        "colorText": "auto",
        "colorWidget": "rgba(0,103,176,1)",
        "colorStroke": "auto",
        "colorFill": "auto",
        "alphaStroke": "auto",
        "alphaFillOff": 0.1,
        "alphaFillOn": "auto",
        "lineWidth": "auto",
        "padding": "auto",
        "html": "",
        "css": "",
        "value": "",
        "default": 64,
        "linkId": "",
        "address": "/control",
        "preArgs": [
          3,
          13
        ],
        "decimals": 2,
        "target": "midi:OSC-hw",
        "onValue": "",
        "lock": false,
        "onCreate": "",
        "interaction": true,
        "design": "default",
        "pips": false,
        "dashed": false,
        "spring": false,
        "doubleTap": true,
        "range": {
          "min": 0,
          "max": 127
        },
        "logScale": false,
        "sensitivity": 1,
        "steps": "",
        "origin": "auto",
        "typeTags": "",
        "ignoreDefaults": false,
        "bypass": false,
        "onTouch": "",
        "angle": 270,
        "mode": "circular",
        "borderRadius": "auto"
      },
      {
        "type": "text",
        "top": 35,
        "left": 225,
        "id": "boost-icon",
        "visible": true,
        "comments": "",
        "width": 30,
        "height": 30,
        "expand": "false",
        "colorText": "auto",
        "colorWidget": "none",
        "colorStroke": "auto",
        "colorFill": "auto",
        "alphaStroke": "auto",
        "alphaFillOff": "auto",
        "alphaFillOn": "auto",
        "lineWidth": "auto",
        "padding": "auto",
        "html": "",
        "css": "font-size: 15px;",
        "value": "⚡",
        "default": "",
        "linkId": "",
        "address": "auto",
        "preArgs": "",
        "decimals": 2,
        "target": "",
        "onValue": "",
        "lock": false,
        "onCreate": "",
        "vertical": false,
        "wrap": false,
        "align": "center",
        "borderRadius": "auto"
      },
      {
        "type": "text",
        "top": 66,
        "left": 200,
        "id": "mic1-knob_1-text",
        "visible": true,
        "comments": "",
        "width": 80,
        "height": 20,
        "expand": "false",
        "colorText": "auto",
        "colorWidget": "none",
        "colorStroke": "auto",
        "colorFill": "auto",
        "alphaStroke": "auto",
        "alphaFillOff": "auto",
        "alphaFillOn": "auto",
        "lineWidth": "auto",
        "padding": "auto",
        "html": "",
        "css": "font-family: monospace",
        "value": "BST",
        "default": "",
        "linkId": "",
        "address": "auto",
        "preArgs": "",
        "decimals": 2,
        "target": "",
        "onValue": "",
        "lock": false,
        "onCreate": "",
        "vertical": false,
        "wrap": false,
        "align": "center",
        "borderRadius": "auto"
      },
      {
        "type": "fader",
        "top": 100,
        "left": 200,
        "id": "mic1-fader_1",
        "visible": true,
        "comments": "",
        "width": 80,
        "height": 240,
        "expand": "false",
        "colorText": "auto",
        "colorWidget": "rgba(0,103,176,1)",
        "colorStroke": "auto",
        "colorFill": "auto",
        "alphaStroke": "auto",
        "alphaFillOff": "auto",
        "alphaFillOn": 0.5,
        "lineWidth": "auto",
        "padding": "auto",
        "html": "",
        "css": "",
        "value": "",
        "default": 127,
        "linkId": "",
        "address": "/control",
        "preArgs": [
          3,
          3
        ],
        "decimals": 2,
        "target": "midi:OSC-hw",
        "onValue": "",
        "lock": false,
        "onCreate": "",
        "interaction": true,
        "design": "compact",
        "pips": false,
        "dashed": false,
        "spring": false,
        "doubleTap": false,
        "range": {
          "min": 0,
          "max": 127
        },
        "logScale": false,
        "sensitivity": 1,
        "steps": "",
        "origin": "auto",
        "typeTags": "",
        "ignoreDefaults": false,
        "bypass": false,
        "onTouch": "",
        "knobSize": 5,
        "horizontal": false,
        "gradient": [],
        "snap": false,
        "borderRadius": "auto"
      },
      {
        "type": "text",
        "top": 340,
        "left": 200,
        "id": "mic1-text",
        "visible": true,
        "comments": "",
        "width": 80,
        "height": 20,
        "expand": "false",
        "colorText": "auto",
        "colorWidget": "none",
        "colorStroke": "auto",
        "colorFill": "auto",
        "alphaStroke": "auto",
        "alphaFillOff": "auto",
        "alphaFillOn": "auto",
        "lineWidth": "auto",
        "padding": "auto",
        "html": "",
        "css": "font-family: monospace",
        "value": "MIC-1",
        "default": "",
        "linkId": "",
        "address": "auto",
        "preArgs": "",
        "decimals": 2,
        "target": "",
        "onValue": "",
        "lock": false,
        "onCreate": "",
        "vertical": false,
        "wrap": false,
        "align": "center",
        "borderRadius": "auto"
      },
      {
        "type": "knob",
        "top": 10,
        "left": 290,
        "id": "mic2-knob_1",
        "visible": true,
        "comments": "",
        "width": 80,
        "height": 80,
        "expand": "false",
        "colorText": "auto",
        "colorWidget": "rgba(231,76,60,1)",
        "colorStroke": "auto",
        "colorFill": "auto",
        "alphaStroke": "auto",
        "alphaFillOff": 0.1,
        "alphaFillOn": "auto",
        "lineWidth": "auto",
        "padding": "auto",
        "html": "",
        "css": "",
        "value": "",
        "default": 0,
        "linkId": "",
        "address": "/control",
        "preArgs": [
          3,
          14
        ],
        "decimals": 2,
        "target": "midi:OSC-hw",
        "onValue": "",
        "lock": false,
        "onCreate": "",
        "interaction": true,
        "design": "default",
        "pips": false,
        "dashed": false,
        "spring": false,
        "doubleTap": true,
        "range": {
          "min": 0,
          "max": 127
        },
        "logScale": false,
        "sensitivity": 1,
        "steps": "",
        "origin": "auto",
        "typeTags": "",
        "ignoreDefaults": false,
        "bypass": false,
        "onTouch": "",
        "angle": 270,
        "mode": "circular",
        "borderRadius": "auto"
      },
      {
        "type": "text",
        "top": 35,
        "left": 315,
        "id": "boost-icon",
        "visible": true,
        "comments": "",
        "width": 30,
        "height": 30,
        "expand": "false",
        "colorText": "auto",
        "colorWidget": "none",
        "colorStroke": "auto",
        "colorFill": "auto",
        "alphaStroke": "auto",
        "alphaFillOff": "auto",
        "alphaFillOn": "auto",
        "lineWidth": "auto",
        "padding": "auto",
        "html": "",
        "css": "font-size: 15px;",
        "value": "⚡",
        "default": "",
        "linkId": "",
        "address": "auto",
        "preArgs": "",
        "decimals": 2,
        "target": "",
        "onValue": "",
        "lock": false,
        "onCreate": "",
        "vertical": false,
        "wrap": false,
        "align": "center",
        "borderRadius": "auto"
      },
      {
        "type": "text",
        "top": 66,
        "left": 290,
        "id": "mic2-knob_1-text",
        "visible": true,
        "comments": "",
        "width": 80,
        "height": 20,
        "expand": "false",
        "colorText": "auto",
        "colorWidget": "none",
        "colorStroke": "auto",
        "colorFill": "auto",
        "alphaStroke": "auto",
        "alphaFillOff": "auto",
        "alphaFillOn": "auto",
        "lineWidth": "auto",
        "padding": "auto",
        "html": "",
        "css": "font-family: monospace",
        "value": "BST",
        "default": "",
        "linkId": "",
        "address": "auto",
        "preArgs": "",
        "decimals": 2,
        "target": "",
        "onValue": "",
        "lock": false,
        "onCreate": "",
        "vertical": false,
        "wrap": false,
        "align": "center",
        "borderRadius": "auto"
      },
      {
        "type": "fader",
        "top": 100,
        "left": 290,
        "id": "mic2-fader_1",
        "visible": true,
        "comments": "",
        "width": 80,
        "height": 240,
        "expand": "false",
        "colorText": "auto",
        "colorWidget": "rgba(231,76,60,1)",
        "colorStroke": "auto",
        "colorFill": "auto",
        "alphaStroke": "auto",
        "alphaFillOff": "auto",
        "alphaFillOn": 0.5,
        "lineWidth": "auto",
        "padding": "auto",
        "html": "",
        "css": "",
        "value": "",
        "default": 127,
        "linkId": "",
        "address": "/control",
        "preArgs": [
          3,
          4
        ],
        "decimals": 2,
        "target": "midi:OSC-hw",
        "onValue": "",
        "lock": false,
        "onCreate": "",
        "interaction": true,
        "design": "compact",
        "pips": false,
        "dashed": false,
        "spring": false,
        "doubleTap": false,
        "range": {
          "min": 0,
          "max": 127
        },
        "logScale": false,
        "sensitivity": 1,
        "steps": "",
        "origin": "auto",
        "typeTags": "",
        "ignoreDefaults": false,
        "bypass": false,
        "onTouch": "",
        "knobSize": 5,
        "horizontal": false,
        "gradient": [],
        "snap": false,
        "borderRadius": "auto"
      },
      {
        "type": "text",
        "top": 340,
        "left": 290,
        "id": "mic2-text",
        "visible": true,
        "comments": "",
        "width": 80,
        "height": 20,
        "expand": "false",
        "colorText": "auto",
        "colorWidget": "none",
        "colorStroke": "auto",
        "colorFill": "auto",
        "alphaStroke": "auto",
        "alphaFillOff": "auto",
        "alphaFillOn": "auto",
        "lineWidth": "auto",
        "padding": "auto",
        "html": "",
        "css": "font-family: monospace",
        "value": "MIC-2",
        "default": "",
        "linkId": "",
        "address": "auto",
        "preArgs": "",
        "decimals": 2,
        "target": "",
        "onValue": "",
        "lock": false,
        "onCreate": "",
        "vertical": false,
        "wrap": false,
        "align": "center",
        "borderRadius": "auto"
      },
      {
        "type": "knob",
        "top": 10,
        "left": 380,
        "id": "mic3-knob_1",
        "visible": true,
        "comments": "",
        "width": 80,
        "height": 80,
        "expand": "false",
        "colorText": "auto",
        "colorWidget": "rgba(142,68,173,1)",
        "colorStroke": "auto",
        "colorFill": "auto",
        "alphaStroke": "auto",
        "alphaFillOff": 0.1,
        "alphaFillOn": "auto",
        "lineWidth": "auto",
        "padding": "auto",
        "html": "",
        "css": "",
        "value": "",
        "default": 0,
        "linkId": "",
        "address": "/control",
        "preArgs": [
          3,
          15
        ],
        "decimals": 2,
        "target": "midi:OSC-hw",
        "onValue": "",
        "lock": false,
        "onCreate": "",
        "interaction": true,
        "design": "default",
        "pips": false,
        "dashed": false,
        "spring": false,
        "doubleTap": true,
        "range": {
          "min": 0,
          "max": 127
        },
        "logScale": false,
        "sensitivity": 1,
        "steps": "",
        "origin": "auto",
        "typeTags": "",
        "ignoreDefaults": false,
        "bypass": false,
        "onTouch": "",
        "angle": 270,
        "mode": "circular",
        "borderRadius": "auto"
      },
      {
        "type": "text",
        "top": 35,
        "left": 405,
        "id": "boost-icon1",
        "visible": true,
        "comments": "",
        "width": 30,
        "height": 30,
        "expand": "false",
        "colorText": "auto",
        "colorWidget": "none",
        "colorStroke": "auto",
        "colorFill": "auto",
        "alphaStroke": "auto",
        "alphaFillOff": "auto",
        "alphaFillOn": "auto",
        "lineWidth": "auto",
        "padding": "auto",
        "html": "",
        "css": "font-size: 15px;",
        "value": "⚡",
        "default": "",
        "linkId": "",
        "address": "auto",
        "preArgs": "",
        "decimals": 2,
        "target": "",
        "onValue": "",
        "lock": false,
        "onCreate": "",
        "vertical": false,
        "wrap": false,
        "align": "center",
        "borderRadius": "auto"
      },
      {
        "type": "text",
        "top": 66,
        "left": 380,
        "id": "mic2-knob_1-text1",
        "visible": true,
        "comments": "",
        "width": 80,
        "height": 20,
        "expand": "false",
        "colorText": "auto",
        "colorWidget": "none",
        "colorStroke": "auto",
        "colorFill": "auto",
        "alphaStroke": "auto",
        "alphaFillOff": "auto",
        "alphaFillOn": "auto",
        "lineWidth": "auto",
        "padding": "auto",
        "html": "",
        "css": "font-family: monospace",
        "value": "BST",
        "default": "",
        "linkId": "",
        "address": "auto",
        "preArgs": "",
        "decimals": 2,
        "target": "",
        "onValue": "",
        "lock": false,
        "onCreate": "",
        "vertical": false,
        "wrap": false,
        "align": "center",
        "borderRadius": "auto"
      },
      {
        "type": "fader",
        "top": 100,
        "left": 380,
        "id": "mic3-fader_1",
        "visible": true,
        "comments": "",
        "width": 80,
        "height": 240,
        "expand": "false",
        "colorText": "auto",
        "colorWidget": "rgba(142,68,173,1)",
        "colorStroke": "auto",
        "colorFill": "auto",
        "alphaStroke": "auto",
        "alphaFillOff": "auto",
        "alphaFillOn": 0.5,
        "lineWidth": "auto",
        "padding": "auto",
        "html": "",
        "css": "",
        "value": "",
        "default": 0,
        "linkId": "",
        "address": "/control",
        "preArgs": [
          3,
          5
        ],
        "decimals": 2,
        "target": "midi:OSC-hw",
        "onValue": "",
        "lock": false,
        "onCreate": "",
        "interaction": true,
        "design": "compact",
        "pips": false,
        "dashed": false,
        "spring": false,
        "doubleTap": false,
        "range": {
          "min": 0,
          "max": 127
        },
        "logScale": false,
        "sensitivity": 1,
        "steps": "",
        "origin": "auto",
        "typeTags": "",
        "ignoreDefaults": false,
        "bypass": false,
        "onTouch": "",
        "knobSize": 5,
        "horizontal": false,
        "gradient": [],
        "snap": false,
        "borderRadius": "auto"
      },
      {
        "type": "text",
        "top": 340,
        "left": 380,
        "id": "mic3-text1",
        "visible": true,
        "comments": "",
        "width": 80,
        "height": 20,
        "expand": "false",
        "colorText": "auto",
        "colorWidget": "none",
        "colorStroke": "auto",
        "colorFill": "auto",
        "alphaStroke": "auto",
        "alphaFillOff": "auto",
        "alphaFillOn": "auto",
        "lineWidth": "auto",
        "padding": "auto",
        "html": "",
        "css": "font-family: monospace",
        "value": "MIC-3",
        "default": "",
        "linkId": "",
        "address": "auto",
        "preArgs": "",
        "decimals": 2,
        "target": "",
        "onValue": "",
        "lock": false,
        "onCreate": "",
        "vertical": false,
        "wrap": false,
        "align": "center",
        "borderRadius": "auto"
      },
      {
        "type": "knob",
        "top": 10,
        "left": 470,
        "id": "guitar-knob_1",
        "visible": true,
        "comments": "",
        "width": 80,
        "height": 80,
        "expand": "false",
        "colorText": "auto",
        "colorWidget": "rgba(241,196,15,1)",
        "colorStroke": "auto",
        "colorFill": "auto",
        "alphaStroke": "auto",
        "alphaFillOff": 0.1,
        "alphaFillOn": "auto",
        "lineWidth": "auto",
        "padding": "auto",
        "html": "",
        "css": "",
        "value": "",
        "default": 0,
        "linkId": "",
        "address": "/control",
        "preArgs": [
          3,
          16
        ],
        "decimals": 2,
        "target": "midi:OSC-hw",
        "onValue": "",
        "lock": false,
        "onCreate": "",
        "interaction": true,
        "design": "default",
        "pips": false,
        "dashed": false,
        "spring": false,
        "doubleTap": true,
        "range": {
          "min": 0,
          "max": 127
        },
        "logScale": false,
        "sensitivity": 1,
        "steps": "",
        "origin": "auto",
        "typeTags": "",
        "ignoreDefaults": false,
        "bypass": false,
        "onTouch": "",
        "angle": 270,
        "mode": "circular",
        "borderRadius": "auto"
      },
      {
        "type": "text",
        "top": 35,
        "left": 495,
        "id": "amp-icon",
        "visible": true,
        "comments": "",
        "width": 30,
        "height": 30,
        "expand": "false",
        "colorText": "auto",
        "colorWidget": "none",
        "colorStroke": "auto",
        "colorFill": "auto",
        "alphaStroke": "auto",
        "alphaFillOff": "auto",
        "alphaFillOn": "auto",
        "lineWidth": "auto",
        "padding": "auto",
        "html": "",
        "css": "font-size: 15px;",
        "value": "🎸",
        "default": "",
        "linkId": "",
        "address": "auto",
        "preArgs": "",
        "decimals": 2,
        "target": "",
        "onValue": "",
        "lock": false,
        "onCreate": "",
        "vertical": false,
        "wrap": false,
        "align": "center",
        "borderRadius": "auto"
      },
      {
        "type": "text",
        "top": 66,
        "left": 470,
        "id": "guitar-knob_1-text1",
        "visible": true,
        "comments": "",
        "width": 80,
        "height": 20,
        "expand": "false",
        "colorText": "auto",
        "colorWidget": "none",
        "colorStroke": "auto",
        "colorFill": "auto",
        "alphaStroke": "auto",
        "alphaFillOff": "auto",
        "alphaFillOn": "auto",
        "lineWidth": "auto",
        "padding": "auto",
        "html": "",
        "css": "font-family: monospace",
        "value": "AMP",
        "default": "",
        "linkId": "",
        "address": "auto",
        "preArgs": "",
        "decimals": 2,
        "target": "",
        "onValue": "",
        "lock": false,
        "onCreate": "",
        "vertical": false,
        "wrap": false,
        "align": "center",
        "borderRadius": "auto"
      },
      {
        "type": "fader",
        "top": 100,
        "left": 470,
        "id": "guitar-fader_1",
        "visible": true,
        "comments": "",
        "width": 80,
        "height": 240,
        "expand": "false",
        "colorText": "auto",
        "colorWidget": "rgba(241,196,15,1)",
        "colorStroke": "auto",
        "colorFill": "auto",
        "alphaStroke": "auto",
        "alphaFillOff": "auto",
        "alphaFillOn": 0.5,
        "lineWidth": "auto",
        "padding": "auto",
        "html": "",
        "css": "",
        "value": "",
        "default": 0,
        "linkId": "",
        "address": "/control",
        "preArgs": [
          3,
          6
        ],
        "decimals": 2,
        "target": "midi:OSC-hw",
        "onValue": "",
        "lock": false,
        "onCreate": "",
        "interaction": true,
        "design": "compact",
        "pips": false,
        "dashed": false,
        "spring": false,
        "doubleTap": false,
        "range": {
          "min": 0,
          "max": 127
        },
        "logScale": false,
        "sensitivity": 1,
        "steps": "",
        "origin": "auto",
        "typeTags": "",
        "ignoreDefaults": false,
        "bypass": false,
        "onTouch": "",
        "knobSize": 5,
        "horizontal": false,
        "gradient": [],
        "snap": false,
        "borderRadius": "auto"
      },
      {
        "type": "text",
        "top": 340,
        "left": 470,
        "id": "guitar-text",
        "visible": true,
        "comments": "",
        "width": 80,
        "height": 20,
        "expand": "false",
        "colorText": "auto",
        "colorWidget": "none",
        "colorStroke": "auto",
        "colorFill": "auto",
        "alphaStroke": "auto",
        "alphaFillOff": "auto",
        "alphaFillOn": "auto",
        "lineWidth": "auto",
        "padding": "auto",
        "html": "",
        "css": "font-family: monospace",
        "value": "GUITAR",
        "default": "",
        "linkId": "",
        "address": "auto",
        "preArgs": "",
        "decimals": 2,
        "target": "",
        "onValue": "",
        "lock": false,
        "onCreate": "",
        "vertical": false,
        "wrap": false,
        "align": "center",
        "borderRadius": "auto"
      },
      {
        "type": "panel",
        "top": 10,
        "left": 470,
        "id": "obs-disabled",
        "visible": true,
        "comments": "",
        "width": 260,
        "height": 360,
        "expand": "false",
        "colorText": "auto",
        "colorWidget": "auto",
        "colorStroke": "auto",
        "colorFill": "auto",
        "alphaStroke": "auto",
        "alphaFillOff": "auto",
        "alphaFillOn": "auto",
        "lineWidth": "auto",
        "padding": "auto",
        "html": "",
        "css": "display: none;",
        "value": "",
        "default": "",
        "linkId": "",
        "address": "auto",
        "preArgs": "",
        "decimals": 2,
        "target": "",
        "onValue": "",
        "lock": false,
        "onCreate": "",
        "interaction": true,
        "typeTags": "",
        "ignoreDefaults": false,
        "bypass": false,
        "colorBg": "auto",
        "layout": "default",
        "justify": "start",
        "gridTemplate": "",
        "contain": true,
        "scroll": true,
        "innerPadding": true,
        "variables": "@{parent.variables}",
        "traversing": false,
        "widgets": [
          {
            "type": "fader",
            "top": 190,
            "left": 480,
            "id": "obs-fader_1",
            "visible": true,
            "interaction": true,
            "comments": "",
            "width": 80,
            "height": 150,
            "expand": "false",
            "colorText": "auto",
            "colorWidget": "rgba(120,83,176,1)",
            "colorStroke": "auto",
            "colorFill": "auto",
            "alphaStroke": "auto",
            "alphaFillOff": "auto",
            "alphaFillOn": 0.5,
            "lineWidth": "auto",
            "padding": "auto",
            "html": "",
            "css": "",
            "value": "",
            "default": 127,
            "linkId": "",
            "address": "/PulseAudio_JACK_Source/volume",
            "preArgs": "",
            "typeTags": "",
            "decimals": 2,
            "target": "127.0.0.1:3333",
            "ignoreDefaults": false,
            "bypass": false,
            "design": "compact",
            "pips": false,
            "dashed": false,
            "spring": false,
            "doubleTap": false,
            "range": {
              "min": 0,
              "max": 1
            },
            "logScale": false,
            "sensitivity": 1,
            "steps": "",
            "origin": "auto",
            "knobSize": 5,
            "horizontal": false,
            "gradient": [],
            "snap": false,
            "onValue": "",
            "lock": false,
            "onCreate": "",
            "onTouch": "",
            "borderRadius": "auto"
          },
          {
            "type": "text",
            "top": 340,
            "left": 480,
            "id": "obs-text",
            "visible": true,
            "comments": "",
            "width": 80,
            "height": 20,
            "expand": "false",
            "colorText": "auto",
            "colorWidget": "none",
            "colorStroke": "auto",
            "colorFill": "auto",
            "alphaStroke": "auto",
            "alphaFillOff": "auto",
            "alphaFillOn": "auto",
            "lineWidth": "auto",
            "padding": "auto",
            "html": "",
            "css": "font-family: monospace",
            "value": "OBS",
            "default": "",
            "linkId": "",
            "address": "auto",
            "preArgs": "",
            "decimals": 2,
            "target": "",
            "vertical": false,
            "wrap": false,
            "align": "center",
            "onValue": "",
            "lock": false,
            "onCreate": "",
            "borderRadius": "auto"
          },
          {
            "type": "menu",
            "top": 190,
            "left": 580,
            "id": "menu_1",
            "visible": true,
            "interaction": true,
            "comments": "",
            "width": 140,
            "height": 40,
            "expand": "false",
            "colorText": "auto",
            "colorWidget": "rgba(120,83,176,1)",
            "colorStroke": "auto",
            "colorFill": "auto",
            "alphaStroke": "auto",
            "alphaFillOff": "auto",
            "alphaFillOn": "auto",
            "lineWidth": "auto",
            "padding": "auto",
            "html": "",
            "css": "",
            "value": "",
            "default": "",
            "linkId": "",
            "address": "/scene",
            "preArgs": "",
            "typeTags": "",
            "decimals": 2,
            "target": "127.0.0.1:3333",
            "ignoreDefaults": false,
            "bypass": false,
            "label": "auto",
            "size": 200,
            "ignoreTabs": false,
            "icon": true,
            "textAlign": "center",
            "menuAlignV": "center",
            "menuAlignH": "center",
            "layout": "vertical",
            "gridTemplate": "",
            "values": [
              "Webcam",
              "Projector & Webcam",
              "Projector",
              "Intro/Outro",
              "Back Shortly",
              "Agnesberg",
              "Technical Error"
            ],
            "weights": "",
            "onValue": "",
            "lock": false,
            "onCreate": "",
            "mode": "default",
            "borderRadius": "auto"
          },
          {
            "type": "button",
            "top": 70,
            "left": 480,
            "id": "button_2",
            "visible": true,
            "interaction": true,
            "comments": "",
            "width": 80,
            "height": 40,
            "expand": "false",
            "colorText": "auto",
            "colorWidget": "rgba(120,83,176,1)",
            "colorStroke": "auto",
            "colorFill": "auto",
            "alphaStroke": "auto",
            "alphaFillOff": "auto",
            "alphaFillOn": "auto",
            "lineWidth": "auto",
            "padding": "auto",
            "html": "",
            "css": "",
            "value": "",
            "default": "",
            "linkId": "",
            "address": "/setStudioMode",
            "preArgs": "",
            "typeTags": "",
            "decimals": 2,
            "target": "127.0.0.1:3333",
            "ignoreDefaults": false,
            "bypass": false,
            "label": "Studio Mode",
            "doubleTap": false,
            "colorTextOn": "auto",
            "vertical": false,
            "wrap": "soft",
            "on": 1,
            "off": 0,
            "mode": "toggle",
            "onValue": "",
            "lock": false,
            "onCreate": "",
            "borderRadius": "auto",
            "decoupled": false
          },
          {
            "type": "menu",
            "top": 130,
            "left": 580,
            "id": "menu_2",
            "visible": true,
            "comments": "",
            "width": 140,
            "height": 40,
            "expand": "false",
            "colorText": "auto",
            "colorWidget": "rgba(120,83,176,1)",
            "colorStroke": "auto",
            "colorFill": "auto",
            "alphaStroke": "auto",
            "alphaFillOff": "auto",
            "alphaFillOn": "auto",
            "lineWidth": "auto",
            "padding": "auto",
            "html": "",
            "css": "",
            "value": "",
            "default": "",
            "linkId": "",
            "address": "/previewScene",
            "preArgs": "",
            "decimals": 2,
            "target": "127.0.0.1:3333",
            "interaction": true,
            "typeTags": "",
            "ignoreDefaults": false,
            "bypass": false,
            "label": "auto",
            "size": 200,
            "ignoreTabs": false,
            "icon": true,
            "textAlign": "center",
            "menuAlignV": "center",
            "menuAlignH": "center",
            "layout": "vertical",
            "gridTemplate": "",
            "values": [
              "Webcam",
              "Projector & Webcam",
              "Projector",
              "Intro/Outro",
              "Back Shortly",
              "Agnesberg",
              "Technical Error"
            ],
            "weights": "",
            "onValue": "",
            "lock": false,
            "onCreate": "",
            "mode": "default",
            "borderRadius": "auto"
          },
          {
            "type": "text",
            "top": 70,
            "left": 580,
            "id": "text_1",
            "visible": true,
            "comments": "",
            "width": 140,
            "height": 40,
            "expand": "false",
            "colorText": "auto",
            "colorWidget": "rgba(120,83,176,1)",
            "colorStroke": "auto",
            "colorFill": "auto",
            "alphaStroke": "auto",
            "alphaFillOff": "auto",
            "alphaFillOn": "auto",
            "lineWidth": "auto",
            "padding": "auto",
            "html": "",
            "css": "",
            "value": "",
            "default": "Unknown scene",
            "linkId": "",
            "address": "/scene",
            "preArgs": "",
            "decimals": 2,
            "target": "127.0.0.1:3333",
            "vertical": false,
            "wrap": false,
            "align": "center",
            "onValue": "",
            "lock": false,
            "onCreate": "",
            "borderRadius": "auto"
          },
          {
            "type": "button",
            "top": 130,
            "left": 480,
            "id": "button_24",
            "visible": true,
            "interaction": true,
            "comments": "",
            "width": 80,
            "height": 40,
            "expand": "false",
            "colorText": "auto",
            "colorWidget": "rgba(120,83,176,1)",
            "colorStroke": "auto",
            "colorFill": "auto",
            "alphaStroke": "auto",
            "alphaFillOff": "auto",
            "alphaFillOn": "auto",
            "lineWidth": "auto",
            "padding": "auto",
            "html": "",
            "css": "",
            "value": "",
            "default": "",
            "linkId": "",
            "address": "/studioTransition",
            "preArgs": [
              "Fade",
              300
            ],
            "typeTags": "",
            "decimals": 0,
            "target": "127.0.0.1:3333",
            "ignoreDefaults": false,
            "bypass": false,
            "label": "Studio Transition",
            "doubleTap": false,
            "colorTextOn": "auto",
            "vertical": false,
            "wrap": "soft",
            "on": 1,
            "off": 0,
            "mode": "push",
            "onValue": "",
            "lock": false,
            "onCreate": "",
            "borderRadius": "auto",
            "decoupled": false
          }
        ],
        "tabs": [],
        "borderRadius": "auto",
        "tabsPosition": "top"
      },
      {
        "type": "text",
        "top": 340,
        "left": 560,
        "id": "piano-text",
        "visible": true,
        "comments": "",
        "width": 40,
        "height": 20,
        "expand": "false",
        "colorText": "auto",
        "colorWidget": "none",
        "colorStroke": "auto",
        "colorFill": "auto",
        "alphaStroke": "auto",
        "alphaFillOff": "auto",
        "alphaFillOn": "auto",
        "lineWidth": "auto",
        "padding": "auto",
        "html": "",
        "css": "font-family: monospace",
        "value": "PIANO",
        "default": "",
        "linkId": "",
        "address": "auto",
        "preArgs": "",
        "decimals": 2,
        "target": "",
        "onValue": "",
        "lock": false,
        "onCreate": "",
        "vertical": false,
        "wrap": false,
        "align": "center",
        "borderRadius": "auto"
      },
      {
        "type": "fader",
        "top": 100,
        "left": 560,
        "id": "piano-fader_1",
        "visible": true,
        "comments": "",
        "width": 40,
        "height": 240,
        "expand": "false",
        "colorText": "auto",
        "colorWidget": "#44ad90",
        "colorStroke": "auto",
        "colorFill": "auto",
        "alphaStroke": "auto",
        "alphaFillOff": "auto",
        "alphaFillOn": 0.5,
        "lineWidth": "auto",
        "padding": "auto",
        "html": "",
        "css": "",
        "value": "",
        "default": 0,
        "linkId": "",
        "address": "/control",
        "preArgs": [
          3,
          7
        ],
        "decimals": 2,
        "target": "midi:OSC-hw",
        "onValue": "",
        "lock": false,
        "onCreate": "",
        "interaction": true,
        "design": "compact",
        "pips": false,
        "dashed": false,
        "spring": false,
        "doubleTap": false,
        "range": {
          "min": 0,
          "max": 127
        },
        "logScale": false,
        "sensitivity": 1,
        "steps": "",
        "origin": "auto",
        "typeTags": "",
        "ignoreDefaults": false,
        "bypass": false,
        "onTouch": "",
        "knobSize": 5,
        "horizontal": false,
        "gradient": [],
        "snap": false,
        "borderRadius": "auto"
      }
    ],
    "tabs": [],
    "hideMenu": false,
    "onValue": "",
    "lock": false,
    "onCreate": "",
    "tabsPosition": "left",
    "borderRadius": "auto"
  }
}